-------------------------------------------------------------------------------
Test set: com.epam.newsmanage.service.impl.AuthorServiceImplTest
-------------------------------------------------------------------------------
Tests run: 5, Failures: 0, Errors: 0, Skipped: 0, Time elapsed: 0.003 sec
