-------------------------------------------------------------------------------
Test set: com.epam.newsmanage.service.impl.CommentServiceImplTest
-------------------------------------------------------------------------------
Tests run: 5, Failures: 0, Errors: 0, Skipped: 0, Time elapsed: 0.002 sec
